[
    ["Solar", "Electric Generation", 4.8 ],
    ["Nuclear", "Electric Generation", 1.42 ],
    ["Hydro", "Electric Generation", 20.35 ],
    ["Hydro", "Industrial", 0.31 ],
    ["Wind", "Electric Generation", 1.35 ],
    ["Geothermal", "Electric Generation", 8.15 ],
    ["Geothermal", "Residential", 5.04 ],
    ["Geothermal", "Commercial", 0.2 ],
    ["Natural Gas", "Electric Generation", 2.54 ],
    ["Natural Gas", "Residential", 0.58 ],
    ["Natural Gas", "Commercial", 1.29 ],
    ["Natural Gas", "Industrial", 3.84 ],
    ["Natural Gas", "Transportation", 5.76 ],
    ["Coal", "Electric Generation", 2.7],
    ["Coal", "Industrial", 1.24],
    ["Biomass", "Electric Generation", 10.52],
    ["Biomass", "Residential", 2.33],
    ["Biomass", "Commercial", 3.16],
    ["Biomass", "Industrial", 0.48],
    ["Biomass", "Transportation", 0.43],
    ["petrolieum", "Electric Generation", 0.21 ],
    ["petrolieum", "Residential", 0.88 ],
    ["petrolieum", "Commercial", 0.83 ],
    ["petrolieum", "Industrial", 8.38 ],
    ["petrolieum", "Transportation", 25.9 ],
    ["Electric Generation", "Residential", 14.7],
    ["Electric Generation", "Commercial", 5.6],
    ["Electric Generation", "Industrial", 1.23],
    ["Electric Generation", "Transportation", 30.03],
    ["Electric Generation", "Rejected Energy", 2.7],
    ["Residential", "Rejected Energy", 3.75],
    ["Residential", "Energy Services", 4.97],
    ["Commercial", "Rejected Energy", 3.15],
    ["Commercial", "Energy Services", 19.84],
    ["Industrial", "Rejected Energy", 2.9],
    ["Industrial", "Energy Services", 1.4],
    ["Transportation", "Rejected Energy", 42.2],
    ["Transportation", "Energy Services", 0.91]
]
